output.txt
cycle =           0, Stall = 0, Flush = 0
PC =          0
Registers
x0 =          0, x8  =          0, x16 =          0, x24 =        -24
x1 =          0, x9  =          0, x17 =          0, x25 =        -25
x2 =          0, x10 =          0, x18 =          0, x26 =        -26
x3 =          0, x11 =          0, x19 =          0, x27 =        -27
x4 =          0, x12 =          0, x20 =          0, x28 =         56
x5 =          0, x13 =          0, x21 =          0, x29 =         58
x6 =          0, x14 =          0, x22 =          0, x30 =         60
x7 =          0, x15 =          0, x23 =          0, x31 =         62
Data Memory: 0x00 =          5
Data Memory: 0x04 =          6
Data Memory: 0x08 =         10
Data Memory: 0x0C =         18
Data Memory: 0x10 =         29
Data Memory: 0x14 =          0
Data Memory: 0x18 =          0
Data Memory: 0x1C =          0


cycle =           1, Stall = 0, Flush = 0
PC =          4
Registers
x0 =          0, x8  =          0, x16 =          0, x24 =        -24
x1 =          0, x9  =          0, x17 =          0, x25 =        -25
x2 =          0, x10 =          0, x18 =          0, x26 =        -26
x3 =          0, x11 =          0, x19 =          0, x27 =        -27
x4 =          0, x12 =          0, x20 =          0, x28 =         56
x5 =          0, x13 =          0, x21 =          0, x29 =         58
x6 =          0, x14 =          0, x22 =          0, x30 =         60
x7 =          0, x15 =          0, x23 =          0, x31 =         62
Data Memory: 0x00 =          5
Data Memory: 0x04 =          6
Data Memory: 0x08 =         10
Data Memory: 0x0C =         18
Data Memory: 0x10 =         29
Data Memory: 0x14 =          0
Data Memory: 0x18 =          0
Data Memory: 0x1C =          0


cycle =           2, Stall = 0, Flush = 0
PC =          8
Registers
x0 =          0, x8  =          0, x16 =          0, x24 =        -24
x1 =          0, x9  =          0, x17 =          0, x25 =        -25
x2 =          0, x10 =          0, x18 =          0, x26 =        -26
x3 =          0, x11 =          0, x19 =          0, x27 =        -27
x4 =          0, x12 =          0, x20 =          0, x28 =         56
x5 =          0, x13 =          0, x21 =          0, x29 =         58
x6 =          0, x14 =          0, x22 =          0, x30 =         60
x7 =          0, x15 =          0, x23 =          0, x31 =         62
Data Memory: 0x00 =          5
Data Memory: 0x04 =          6
Data Memory: 0x08 =         10
Data Memory: 0x0C =         18
Data Memory: 0x10 =         29
Data Memory: 0x14 =          0
Data Memory: 0x18 =          0
Data Memory: 0x1C =          0


cycle =           3, Stall = 0, Flush = 0
PC =         12
Registers
x0 =          0, x8  =          0, x16 =          0, x24 =        -24
x1 =          0, x9  =          0, x17 =          0, x25 =        -25
x2 =          0, x10 =          0, x18 =          0, x26 =        -26
x3 =          0, x11 =          0, x19 =          0, x27 =        -27
x4 =          0, x12 =          0, x20 =          0, x28 =         56
x5 =          0, x13 =          0, x21 =          0, x29 =         58
x6 =          0, x14 =          0, x22 =          0, x30 =         60
x7 =          0, x15 =          0, x23 =          0, x31 =         62
Data Memory: 0x00 =          5
Data Memory: 0x04 =          6
Data Memory: 0x08 =         10
Data Memory: 0x0C =         18
Data Memory: 0x10 =         29
Data Memory: 0x14 =          0
Data Memory: 0x18 =          0
Data Memory: 0x1C =          0


cycle =           4, Stall = 0, Flush = 0
PC =         16
Registers
x0 =          0, x8  =          0, x16 =          0, x24 =        -24
x1 =          0, x9  =          0, x17 =          0, x25 =        -25
x2 =          0, x10 =          0, x18 =          0, x26 =        -26
x3 =          0, x11 =          0, x19 =          0, x27 =        -27
x4 =          0, x12 =          0, x20 =          0, x28 =         56
x5 =          0, x13 =          0, x21 =          0, x29 =         58
x6 =          0, x14 =          0, x22 =          0, x30 =         60
x7 =          0, x15 =          0, x23 =          0, x31 =         62
Data Memory: 0x00 =          5
Data Memory: 0x04 =          6
Data Memory: 0x08 =         10
Data Memory: 0x0C =         18
Data Memory: 0x10 =         29
Data Memory: 0x14 =          0
Data Memory: 0x18 =          0
Data Memory: 0x1C =          0


cycle =           5, Stall = 0, Flush = 0
PC =         20
Registers
x0 =          0, x8  =          0, x16 =          0, x24 =        -24
x1 =          0, x9  =          0, x17 =          0, x25 =        -25
x2 =          0, x10 =          5, x18 =          0, x26 =        -26
x3 =          0, x11 =          0, x19 =          0, x27 =        -27
x4 =          0, x12 =          0, x20 =          0, x28 =         56
x5 =          0, x13 =          0, x21 =          0, x29 =         58
x6 =          0, x14 =          0, x22 =          0, x30 =         60
x7 =          0, x15 =          0, x23 =          0, x31 =         62
Data Memory: 0x00 =          5
Data Memory: 0x04 =          6
Data Memory: 0x08 =         10
Data Memory: 0x0C =         18
Data Memory: 0x10 =         29
Data Memory: 0x14 =          0
Data Memory: 0x18 =          0
Data Memory: 0x1C =          0


cycle =           6, Stall = 0, Flush = 0
PC =         24
Registers
x0 =          0, x8  =          0, x16 =          0, x24 =        -24
x1 =          0, x9  =          0, x17 =          0, x25 =        -25
x2 =          0, x10 =          5, x18 =          0, x26 =        -26
x3 =          0, x11 =          7, x19 =          0, x27 =        -27
x4 =          0, x12 =          0, x20 =          0, x28 =         56
x5 =          0, x13 =          0, x21 =          0, x29 =         58
x6 =          0, x14 =          0, x22 =          0, x30 =         60
x7 =          0, x15 =          0, x23 =          0, x31 =         62
Data Memory: 0x00 =          5
Data Memory: 0x04 =          6
Data Memory: 0x08 =         10
Data Memory: 0x0C =         18
Data Memory: 0x10 =         29
Data Memory: 0x14 =          0
Data Memory: 0x18 =          0
Data Memory: 0x1C =          0


cycle =           7, Stall = 0, Flush = 0
PC =         28
Registers
x0 =          0, x8  =          0, x16 =          0, x24 =        -24
x1 =          0, x9  =          0, x17 =          0, x25 =        -25
x2 =          0, x10 =         12, x18 =          0, x26 =        -26
x3 =          0, x11 =          7, x19 =          0, x27 =        -27
x4 =          0, x12 =          0, x20 =          0, x28 =         56
x5 =          0, x13 =          0, x21 =          0, x29 =         58
x6 =          0, x14 =          0, x22 =          0, x30 =         60
x7 =          0, x15 =          0, x23 =          0, x31 =         62
Data Memory: 0x00 =          5
Data Memory: 0x04 =          6
Data Memory: 0x08 =         10
Data Memory: 0x0C =         18
Data Memory: 0x10 =         29
Data Memory: 0x14 =          0
Data Memory: 0x18 =          0
Data Memory: 0x1C =          0


cycle =           8, Stall = 0, Flush = 0
PC =         32
Registers
x0 =          0, x8  =          0, x16 =          0, x24 =        -24
x1 =          0, x9  =          0, x17 =          0, x25 =        -25
x2 =          0, x10 =         12, x18 =          0, x26 =        -26
x3 =          0, x11 =         12, x19 =          0, x27 =        -27
x4 =          0, x12 =          0, x20 =          0, x28 =         56
x5 =          0, x13 =          0, x21 =          0, x29 =         58
x6 =          0, x14 =          0, x22 =          0, x30 =         60
x7 =          0, x15 =          0, x23 =          0, x31 =         62
Data Memory: 0x00 =          5
Data Memory: 0x04 =          6
Data Memory: 0x08 =         10
Data Memory: 0x0C =         18
Data Memory: 0x10 =         29
Data Memory: 0x14 =          0
Data Memory: 0x18 =          0
Data Memory: 0x1C =          0


cycle =           9, Stall = 0, Flush = 0
PC =         36
Registers
x0 =          0, x8  =          0, x16 =          0, x24 =        -24
x1 =          0, x9  =          0, x17 =          0, x25 =        -25
x2 =          0, x10 =         12, x18 =          0, x26 =        -26
x3 =          0, x11 =         12, x19 =          0, x27 =        -27
x4 =          0, x12 =          0, x20 =          0, x28 =         56
x5 =          0, x13 =          0, x21 =          0, x29 =         58
x6 =          0, x14 =          0, x22 =          0, x30 =         60
x7 =          0, x15 =          0, x23 =          0, x31 =         62
Data Memory: 0x00 =          5
Data Memory: 0x04 =          6
Data Memory: 0x08 =         10
Data Memory: 0x0C =         18
Data Memory: 0x10 =         29
Data Memory: 0x14 =          0
Data Memory: 0x18 =          0
Data Memory: 0x1C =          0


cycle =          10, Stall = 0, Flush = 0
PC =         40
Registers
x0 =          0, x8  =          0, x16 =          0, x24 =        -24
x1 =          0, x9  =          0, x17 =          0, x25 =        -25
x2 =          0, x10 =         12, x18 =          0, x26 =        -26
x3 =          0, x11 =         12, x19 =          0, x27 =        -27
x4 =          0, x12 =          0, x20 =          0, x28 =         56
x5 =          0, x13 =          0, x21 =          0, x29 =         58
x6 =          0, x14 =          0, x22 =          0, x30 =         60
x7 =          0, x15 =          0, x23 =          0, x31 =         62
Data Memory: 0x00 =          5
Data Memory: 0x04 =          6
Data Memory: 0x08 =         10
Data Memory: 0x0C =         18
Data Memory: 0x10 =         29
Data Memory: 0x14 =          0
Data Memory: 0x18 =          0
Data Memory: 0x1C =          0


cycle =          11, Stall = 0, Flush = 0
PC =         44
Registers
x0 =          0, x8  =          0, x16 =          0, x24 =        -24
x1 =          0, x9  =          0, x17 =          0, x25 =        -25
x2 =          0, x10 =         12, x18 =          0, x26 =        -26
x3 =          0, x11 =         12, x19 =          0, x27 =        -27
x4 =          0, x12 =          0, x20 =          0, x28 =         56
x5 =          0, x13 =          0, x21 =          0, x29 =         58
x6 =          0, x14 =          0, x22 =          0, x30 =         60
x7 =          0, x15 =          0, x23 =          0, x31 =         62
Data Memory: 0x00 =          5
Data Memory: 0x04 =          6
Data Memory: 0x08 =         10
Data Memory: 0x0C =         18
Data Memory: 0x10 =         29
Data Memory: 0x14 =          0
Data Memory: 0x18 =          0
Data Memory: 0x1C =          0


cycle =          12, Stall = 0, Flush = 0
PC =         48
Registers
x0 =          0, x8  =          0, x16 =          0, x24 =        -24
x1 =          0, x9  =          0, x17 =          0, x25 =        -25
x2 =          0, x10 =         12, x18 =          0, x26 =        -26
x3 =          0, x11 =         12, x19 =          0, x27 =        -27
x4 =          0, x12 =          0, x20 =          0, x28 =         56
x5 =          0, x13 =          0, x21 =          0, x29 =         58
x6 =          0, x14 =          0, x22 =          0, x30 =         60
x7 =          0, x15 =          0, x23 =          0, x31 =         62
Data Memory: 0x00 =          5
Data Memory: 0x04 =          6
Data Memory: 0x08 =         10
Data Memory: 0x0C =         18
Data Memory: 0x10 =         29
Data Memory: 0x14 =          0
Data Memory: 0x18 =          0
Data Memory: 0x1C =          0


cycle =          13, Stall = 0, Flush = 0
PC =         52
Registers
x0 =          0, x8  =          0, x16 =          0, x24 =        -24
x1 =          0, x9  =          0, x17 =          0, x25 =        -25
x2 =          0, x10 =         12, x18 =          0, x26 =        -26
x3 =          0, x11 =         12, x19 =          0, x27 =        -27
x4 =          0, x12 =          0, x20 =          0, x28 =         56
x5 =          0, x13 =          0, x21 =          0, x29 =         58
x6 =          0, x14 =          0, x22 =          0, x30 =         60
x7 =          0, x15 =          0, x23 =          0, x31 =         62
Data Memory: 0x00 =          5
Data Memory: 0x04 =          6
Data Memory: 0x08 =         10
Data Memory: 0x0C =         18
Data Memory: 0x10 =         29
Data Memory: 0x14 =          0
Data Memory: 0x18 =          0
Data Memory: 0x1C =          0


cycle =          14, Stall = 0, Flush = 0
PC =         56
Registers
x0 =          0, x8  =          0, x16 =          0, x24 =        -24
x1 =          0, x9  =          0, x17 =          0, x25 =        -25
x2 =          0, x10 =         12, x18 =          0, x26 =        -26
x3 =          0, x11 =          2, x19 =          0, x27 =        -27
x4 =          0, x12 =          0, x20 =          0, x28 =         56
x5 =          0, x13 =          0, x21 =          0, x29 =         58
x6 =          0, x14 =          0, x22 =          0, x30 =         60
x7 =          0, x15 =          0, x23 =          0, x31 =         62
Data Memory: 0x00 =          5
Data Memory: 0x04 =          6
Data Memory: 0x08 =         10
Data Memory: 0x0C =         18
Data Memory: 0x10 =         29
Data Memory: 0x14 =          0
Data Memory: 0x18 =          0
Data Memory: 0x1C =          0


cycle =          15, Stall = 0, Flush = 0
PC =         60
Registers
x0 =          0, x8  =          0, x16 =          0, x24 =        -24
x1 =          0, x9  =          0, x17 =          0, x25 =        -25
x2 =          0, x10 =         24, x18 =          0, x26 =        -26
x3 =          0, x11 =          2, x19 =          0, x27 =        -27
x4 =          0, x12 =          0, x20 =          0, x28 =         56
x5 =          0, x13 =          0, x21 =          0, x29 =         58
x6 =          0, x14 =          0, x22 =          0, x30 =         60
x7 =          0, x15 =          0, x23 =          0, x31 =         62
Data Memory: 0x00 =          5
Data Memory: 0x04 =          6
Data Memory: 0x08 =         10
Data Memory: 0x0C =         18
Data Memory: 0x10 =         29
Data Memory: 0x14 =          0
Data Memory: 0x18 =          0
Data Memory: 0x1C =          0


cycle =          16, Stall = 0, Flush = 0
PC =         64
Registers
x0 =          0, x8  =          0, x16 =          0, x24 =        -24
x1 =          0, x9  =          0, x17 =          0, x25 =        -25
x2 =          0, x10 =         24, x18 =          0, x26 =        -26
x3 =          0, x11 =          3, x19 =          0, x27 =        -27
x4 =          0, x12 =          0, x20 =          0, x28 =         56
x5 =          0, x13 =          0, x21 =          0, x29 =         58
x6 =          0, x14 =          0, x22 =          0, x30 =         60
x7 =          0, x15 =          0, x23 =          0, x31 =         62
Data Memory: 0x00 =          5
Data Memory: 0x04 =          6
Data Memory: 0x08 =         10
Data Memory: 0x0C =         18
Data Memory: 0x10 =         29
Data Memory: 0x14 =          0
Data Memory: 0x18 =          0
Data Memory: 0x1C =          0


cycle =          17, Stall = 0, Flush = 0
PC =         68
Registers
x0 =          0, x8  =          0, x16 =          0, x24 =        -24
x1 =          0, x9  =          0, x17 =          0, x25 =        -25
x2 =          0, x10 =         27, x18 =          0, x26 =        -26
x3 =          0, x11 =          3, x19 =          0, x27 =        -27
x4 =          0, x12 =          0, x20 =          0, x28 =         56
x5 =          0, x13 =          0, x21 =          0, x29 =         58
x6 =          0, x14 =          0, x22 =          0, x30 =         60
x7 =          0, x15 =          0, x23 =          0, x31 =         62
Data Memory: 0x00 =          5
Data Memory: 0x04 =          6
Data Memory: 0x08 =         10
Data Memory: 0x0C =         18
Data Memory: 0x10 =         29
Data Memory: 0x14 =          0
Data Memory: 0x18 =          0
Data Memory: 0x1C =          0


cycle =          18, Stall = 0, Flush = 0
PC =         72
Registers
x0 =          0, x8  =          0, x16 =          0, x24 =        -24
x1 =          0, x9  =          0, x17 =          0, x25 =        -25
x2 =          0, x10 =         27, x18 =          0, x26 =        -26
x3 =          0, x11 =         27, x19 =          0, x27 =        -27
x4 =          0, x12 =          0, x20 =          0, x28 =         56
x5 =          0, x13 =          0, x21 =          0, x29 =         58
x6 =          0, x14 =          0, x22 =          0, x30 =         60
x7 =          0, x15 =          0, x23 =          0, x31 =         62
Data Memory: 0x00 =          5
Data Memory: 0x04 =          6
Data Memory: 0x08 =         10
Data Memory: 0x0C =         18
Data Memory: 0x10 =         29
Data Memory: 0x14 =          0
Data Memory: 0x18 =          0
Data Memory: 0x1C =          0


cycle =          19, Stall = 0, Flush = 0
PC =         76
Registers
x0 =          0, x8  =          0, x16 =          0, x24 =        -24
x1 =          0, x9  =          0, x17 =          0, x25 =        -25
x2 =          0, x10 =         27, x18 =          0, x26 =        -26
x3 =          0, x11 =         27, x19 =          0, x27 =        -27
x4 =          0, x12 =          0, x20 =          0, x28 =         56
x5 =          0, x13 =          0, x21 =          0, x29 =         58
x6 =          0, x14 =          0, x22 =          0, x30 =         60
x7 =          0, x15 =          0, x23 =          0, x31 =         62
Data Memory: 0x00 =          5
Data Memory: 0x04 =          6
Data Memory: 0x08 =         10
Data Memory: 0x0C =         18
Data Memory: 0x10 =         29
Data Memory: 0x14 =          0
Data Memory: 0x18 =          0
Data Memory: 0x1C =          0


cycle =          20, Stall = 0, Flush = 1
PC =         84
Registers
x0 =          0, x8  =          0, x16 =          0, x24 =        -24
x1 =          0, x9  =          0, x17 =          0, x25 =        -25
x2 =          0, x10 =         27, x18 =          0, x26 =        -26
x3 =          0, x11 =         27, x19 =          0, x27 =        -27
x4 =          0, x12 =          0, x20 =          0, x28 =         56
x5 =          0, x13 =          0, x21 =          0, x29 =         58
x6 =          0, x14 =          0, x22 =          0, x30 =         60
x7 =          0, x15 =          0, x23 =          0, x31 =         62
Data Memory: 0x00 =          5
Data Memory: 0x04 =          6
Data Memory: 0x08 =         10
Data Memory: 0x0C =         18
Data Memory: 0x10 =         29
Data Memory: 0x14 =          0
Data Memory: 0x18 =          0
Data Memory: 0x1C =          0


cycle =          21, Stall = 0, Flush = 1
PC =         88
Registers
x0 =          0, x8  =          0, x16 =          0, x24 =        -24
x1 =          0, x9  =          0, x17 =          0, x25 =        -25
x2 =          0, x10 =         27, x18 =          0, x26 =        -26
x3 =          0, x11 =         27, x19 =          0, x27 =        -27
x4 =          0, x12 =          0, x20 =          0, x28 =         56
x5 =          0, x13 =          0, x21 =          0, x29 =         58
x6 =          0, x14 =          0, x22 =          0, x30 =         60
x7 =          0, x15 =          0, x23 =          0, x31 =         62
Data Memory: 0x00 =          5
Data Memory: 0x04 =          6
Data Memory: 0x08 =         10
Data Memory: 0x0C =         18
Data Memory: 0x10 =         29
Data Memory: 0x14 =          0
Data Memory: 0x18 =          0
Data Memory: 0x1C =          0


cycle =          22, Stall = 0, Flush = 1
PC =         92
Registers
x0 =          0, x8  =          0, x16 =          0, x24 =        -24
x1 =          0, x9  =          0, x17 =          0, x25 =        -25
x2 =          0, x10 =         27, x18 =          0, x26 =        -26
x3 =          0, x11 =         27, x19 =          0, x27 =        -27
x4 =          0, x12 =          0, x20 =          0, x28 =         56
x5 =          0, x13 =          0, x21 =          0, x29 =         58
x6 =          0, x14 =          0, x22 =          0, x30 =         60
x7 =          0, x15 =          0, x23 =          0, x31 =         62
Data Memory: 0x00 =          5
Data Memory: 0x04 =          6
Data Memory: 0x08 =         10
Data Memory: 0x0C =         18
Data Memory: 0x10 =         29
Data Memory: 0x14 =          0
Data Memory: 0x18 =          0
Data Memory: 0x1C =          0


cycle =          23, Stall = 0, Flush = 1
PC =         96
Registers
x0 =          0, x8  =          0, x16 =          0, x24 =        -24
x1 =          0, x9  =          0, x17 =          0, x25 =        -25
x2 =          0, x10 =         27, x18 =          0, x26 =        -26
x3 =          0, x11 =         27, x19 =          0, x27 =        -27
x4 =          0, x12 =          0, x20 =          0, x28 =         56
x5 =          0, x13 =          0, x21 =          0, x29 =         58
x6 =          0, x14 =          0, x22 =          0, x30 =         60
x7 =          0, x15 =          0, x23 =          0, x31 =         62
Data Memory: 0x00 =          5
Data Memory: 0x04 =          6
Data Memory: 0x08 =         10
Data Memory: 0x0C =         18
Data Memory: 0x10 =         29
Data Memory: 0x14 =          0
Data Memory: 0x18 =          0
Data Memory: 0x1C =          0


cycle =          24, Stall = 0, Flush = 1
PC =        100
Registers
x0 =          0, x8  =          0, x16 =          0, x24 =        -24
x1 =          0, x9  =          0, x17 =          0, x25 =        -25
x2 =          0, x10 =         27, x18 =          0, x26 =        -26
x3 =          0, x11 =         27, x19 =          0, x27 =        -27
x4 =          0, x12 =          0, x20 =          0, x28 =         56
x5 =          0, x13 =          0, x21 =          0, x29 =         58
x6 =          0, x14 =          0, x22 =          0, x30 =         60
x7 =          0, x15 =          0, x23 =          0, x31 =         62
Data Memory: 0x00 =          5
Data Memory: 0x04 =          6
Data Memory: 0x08 =         10
Data Memory: 0x0C =         18
Data Memory: 0x10 =         29
Data Memory: 0x14 =          0
Data Memory: 0x18 =          0
Data Memory: 0x1C =          0


y: 0x00 =          5
Data Memory: 0x04 =          6
Data Memory: 0x08 =         10
Data Memory: 0x0C =         18
Data Memory: 0x10 =         29
Data Memory: 0x14 =          0
Data Memory: 0x18 =          0
Data Memory: 0x1C =          0


code/tb/testbench.v:185: $finish called at 1250 (1s)
