log/waveform_2.vcd
$date
	Tue Nov  4 16:01:28 2025
$end
$version
	Icarus Verilog
$end
$timescale
	1s
$end
$scope module TestBench $end
$var reg 1 ! Clk $end
$var reg 1 " Reset $end
$var integer 32 # cycle_count [31:0] $end
$var integer 32 $ eof_pc [31:0] $end
$var integer 32 % flush [31:0] $end
$var integer 32 & i [31:0] $end
$var integer 32 ' out_flush [31:0] $end
$var integer 32 ( out_stall [31:0] $end
$var integer 32 ) outfile [31:0] $end
$var integer 32 * stall [31:0] $end
$var integer 32 + start [31:0] $end
$scope module u_CPU $end
$var wire 1 , Flush $end
$var wire 1 - ID_FlushIF $end
$var wire 1 ! clk_i $end
$var wire 1 " rst_n $end
$var wire 32 . pc_o [31:0] $end
$var wire 32 / pc_next [31:0] $end
$var wire 32 0 pc_i [31:0] $end
$var wire 32 1 pc_branch [31:0] $end
$var wire 32 2 pc_ID [31:0] $end
$var wire 7 3 opcode_ID [6:0] $end
$var wire 32 4 instr_IF [31:0] $end
$var wire 32 5 instr_ID [31:0] $end
$var wire 32 6 imm_ID [31:0] $end
$var wire 32 7 imm_EX [31:0] $end
$var wire 7 8 funct7_ID [6:0] $end
$var wire 7 9 funct7_EX [6:0] $end
$var wire 3 : funct3_ID [2:0] $end
$var wire 3 ; funct3_EX [2:0] $end
$var wire 32 < WriteData_WB [31:0] $end
$var wire 1 = RegWrite_WB $end
$var wire 1 > RegWrite_MEM $end
$var wire 1 ? RegWrite_ID $end
$var wire 1 @ RegWrite_EX $end
$var wire 32 A ReadData_WB [31:0] $end
$var wire 32 B ReadData_MEM [31:0] $end
$var wire 32 C RS2data_ID [31:0] $end
$var wire 32 D RS2data_EX [31:0] $end
$var wire 5 E RS2addr_ID [4:0] $end
$var wire 5 F RS2addr_EX [4:0] $end
$var wire 32 G RS1data_ID [31:0] $end
$var wire 32 H RS1data_EX [31:0] $end
$var wire 5 I RS1addr_ID [4:0] $end
$var wire 5 J RS1addr_EX [4:0] $end
$var wire 5 K RDaddr_WB [4:0] $end
$var wire 5 L RDaddr_MEM [4:0] $end
$var wire 5 M RDaddr_ID [4:0] $end
$var wire 5 N RDaddr_EX [4:0] $end
$var wire 1 O PCWrite $end
$var wire 1 P NoOP $end
$var wire 1 Q MemtoReg_WB $end
$var wire 1 R MemtoReg_MEM $end
$var wire 1 S MemtoReg_ID $end
$var wire 1 T MemtoReg_EX $end
$var wire 1 U MemWrite_MEM $end
$var wire 1 V MemWrite_ID $end
$var wire 1 W MemWrite_EX $end
$var wire 1 X MemRead_MEM $end
$var wire 1 Y MemRead_ID $end
$var wire 1 Z MemRead_EX $end
$var wire 1 [ ID_Stall $end
$var wire 2 \ ForwardB [1:0] $end
$var wire 2 ] ForwardA [1:0] $end
$var wire 1 ^ Branch_ID $end
$var wire 32 _ ALUinB_MEM [31:0] $end
$var wire 32 ` ALUinB_EX [31:0] $end
$var wire 32 a ALUin2_EX [31:0] $end
$var wire 32 b ALUin1_EX [31:0] $end
$var wire 1 c ALUSrc_ID $end
$var wire 1 d ALUSrc_EX $end
$var wire 32 e ALUResult_WB [31:0] $end
$var wire 32 f ALUResult_MEM [31:0] $end
$var wire 32 g ALUResult_EX [31:0] $end
$var wire 2 h ALUOp_ID [1:0] $end
$var wire 2 i ALUOp_EX [1:0] $end
$var wire 4 j ALUCtrl_EX [3:0] $end
$scope module u_ALU $end
$var wire 3 k ALUCtrl_i [2:0] $end
$var wire 32 l ALUin2_i [31:0] $end
$var wire 32 m ALUin1_i [31:0] $end
$var reg 32 n ALUResult_o [31:0] $end
$upscope $end
$scope module u_ALU_Control $end
$var wire 7 o funct7_i [6:0] $end
$var wire 3 p funct3_i [2:0] $end
$var wire 2 q ALUOp_i [1:0] $end
$var reg 4 r ALUCtrl_o [3:0] $end
$upscope $end
$scope module u_Add_Branch $end
$var wire 32 s c [31:0] $end
$var wire 32 t b [31:0] $end
$var wire 32 u a [31:0] $end
$upscope $end
$scope module u_Add_PC $end
$var wire 32 v b [31:0] $end
$var wire 32 w c [31:0] $end
$var wire 32 x a [31:0] $end
$upscope $end
$scope module u_Control $end
$var wire 7 y opcode_i [6:0] $end
$var wire 1 P NoOP_i $end
$var reg 2 z ALUOp_o [1:0] $end
$var reg 1 c ALUSrc_o $end
$var reg 1 ^ Branch_o $end
$var reg 1 Y MemRead_o $end
$var reg 1 V MemWrite_o $end
$var reg 1 S MemtoReg_o $end
$var reg 1 ? RegWrite_o $end
$upscope $end
$scope module u_Data_Memory $end
$var wire 1 ! clk_i $end
$var wire 32 { data_o [31:0] $end
$var wire 32 | data_i [31:0] $end
$var wire 32 } addr_i [31:0] $end
$var wire 1 U MemWrite_i $end
$var wire 1 X MemRead_i $end
$upscope $end
$scope module u_EX_MEM $end
$var wire 32 ~ ALUResult_i [31:0] $end
$var wire 1 ! clk_i $end
$var wire 1 " rst_i $end
$var wire 1 @ RegWrite_i $end
$var wire 5 !" RDaddr_i [4:0] $end
$var wire 1 T MemtoReg_i $end
$var wire 1 W MemWrite_i $end
$var wire 1 Z MemRead_i $end
$var wire 32 "" ALUinB_i [31:0] $end
$var reg 32 #" ALUResult_o [31:0] $end
$var reg 32 $" ALUinB_o [31:0] $end
$var reg 1 X MemRead_o $end
$var reg 1 U MemWrite_o $end
$var reg 1 R MemtoReg_o $end
$var reg 5 %" RDaddr_o [4:0] $end
$var reg 1 > RegWrite_o $end
$upscope $end
$scope module u_Forwarding $end
$var wire 5 &" RDaddr_MEM_i [4:0] $end
$var wire 1 > RegWrite_MEM_i $end
$var wire 1 = RegWrite_WB_i $end
$var wire 5 '" RS2addr_EX_i [4:0] $end
$var wire 5 (" RS1addr_EX_i [4:0] $end
$var wire 5 )" RDaddr_WB_i [4:0] $end
$var reg 2 *" ForwardA_o [1:0] $end
$var reg 2 +" ForwardB_o [1:0] $end
$upscope $end
$scope module u_Hazard_Detection $end
$var wire 5 ," RS1addr_ID_i [4:0] $end
$var wire 5 -" RS2addr_ID_i [4:0] $end
$var wire 5 ." RDaddr_EX_i [4:0] $end
$var wire 1 Z MemRead_EX_i $end
$var reg 1 P NoOP_o $end
$var reg 1 O PCWrite_o $end
$var reg 1 [ Stall_o $end
$upscope $end
$scope module u_ID_EX $end
$var wire 2 /" ALUOp_i [1:0] $end
$var wire 1 c ALUSrc_i $end
$var wire 1 Y MemRead_i $end
$var wire 1 V MemWrite_i $end
$var wire 1 S MemtoReg_i $end
$var wire 5 0" RDaddr_i [4:0] $end
$var wire 5 1" RS1addr_i [4:0] $end
$var wire 5 2" RS2addr_i [4:0] $end
$var wire 1 ? RegWrite_i $end
$var wire 1 ! clk_i $end
$var wire 3 3" funct3_i [2:0] $end
$var wire 7 4" funct7_i [6:0] $end
$var wire 1 " rst_i $end
$var wire 32 5" imm_i [31:0] $end
$var wire 32 6" RS2data_i [31:0] $end
$var wire 32 7" RS1data_i [31:0] $end
$var reg 2 8" ALUOp_o [1:0] $end
$var reg 1 d ALUSrc_o $end
$var reg 1 Z MemRead_o $end
$var reg 1 W MemWrite_o $end
$var reg 1 T MemtoReg_o $end
$var reg 5 9" RDaddr_o [4:0] $end
$var reg 5 :" RS1addr_o [4:0] $end
$var reg 32 ;" RS1data_o [31:0] $end
$var reg 5 <" RS2addr_o [4:0] $end
$var reg 32 =" RS2data_o [31:0] $end
$var reg 1 @ RegWrite_o $end
$var reg 3 >" funct3_o [2:0] $end
$var reg 7 ?" funct7_o [6:0] $end
$var reg 32 @" imm_o [31:0] $end
$upscope $end
$scope module u_IF_ID $end
$var wire 1 ! clk_i $end
$var wire 1 , flush_i $end
$var wire 1 " rst_i $end
$var wire 1 [ stall_i $end
$var wire 32 A" pc_i [31:0] $end
$var wire 32 B" instr_i [31:0] $end
$var reg 32 C" instr_o [31:0] $end
$var reg 32 D" pc_o [31:0] $end
$upscope $end
$scope module u_Instruction_Memory $end
$var wire 32 E" instr_o [31:0] $end
$var wire 32 F" addr_i [31:0] $end
$upscope $end
$scope module u_MEM_WB $end
$var wire 32 G" ALUResult_i [31:0] $end
$var wire 1 R MemtoReg_i $end
$var wire 5 H" RDaddr_i [4:0] $end
$var wire 32 I" ReadData_i [31:0] $end
$var wire 1 > RegWrite_i $end
$var wire 1 ! clk_i $end
$var wire 1 " rst_i $end
$var reg 32 J" ALUResult_o [31:0] $end
$var reg 1 Q MemtoReg_o $end
$var reg 5 K" RDaddr_o [4:0] $end
$var reg 32 L" ReadData_o [31:0] $end
$var reg 1 = RegWrite_o $end
$upscope $end
$scope module u_MUX_ALUSrc $end
$var wire 32 M" data2_i [31:0] $end
$var wire 1 d select_i $end
$var wire 32 N" data_o [31:0] $end
$var wire 32 O" data1_i [31:0] $end
$upscope $end
$scope module u_MUX_ALUSrc1 $end
$var wire 32 P" data1_i [31:0] $end
$var wire 32 Q" data3_i [31:0] $end
$var wire 32 R" data4_i [31:0] $end
$var wire 2 S" select_i [1:0] $end
$var wire 32 T" data2_i [31:0] $end
$var reg 32 U" data_o [31:0] $end
$upscope $end
$scope module u_MUX_ALUSrc2 $end
$var wire 32 V" data1_i [31:0] $end
$var wire 32 W" data3_i [31:0] $end
$var wire 32 X" data4_i [31:0] $end
$var wire 2 Y" select_i [1:0] $end
$var wire 32 Z" data2_i [31:0] $end
$var reg 32 [" data_o [31:0] $end
$upscope $end
$scope module u_MUX_PCSrc $end
$var wire 32 \" data1_i [31:0] $end
$var wire 32 ]" data2_i [31:0] $end
$var wire 1 , select_i $end
$var wire 32 ^" data_o [31:0] $end
$upscope $end
$scope module u_MUX_WBSrc $end
$var wire 32 _" data1_i [31:0] $end
$var wire 32 `" data2_i [31:0] $end
$var wire 1 Q select_i $end
$var wire 32 a" data_o [31:0] $end
$upscope $end
$scope module u_PC $end
$var wire 1 O PCWrite_i $end
$var wire 1 ! clk_i $end
$var wire 32 b" pc_i [31:0] $end
$var wire 1 " rst_n $end
$var reg 32 c" pc_o [31:0] $end
$upscope $end
$scope module u_Registers $end
$var wire 5 d" RDaddr_i [4:0] $end
$var wire 32 e" RDdata_i [31:0] $end
$var wire 5 f" RS1addr_i [4:0] $end
$var wire 5 g" RS2addr_i [4:0] $end
$var wire 1 = RegWrite_i $end
$var wire 1 ! clk_i $end
$var wire 1 " rst_n $end
$var wire 32 h" RS2data_o [31:0] $end
$var wire 32 i" RS1data_o [31:0] $end
$var integer 32 j" i [31:0] $end
$upscope $end
$scope module u_Sign_Extend $end
$var wire 32 k" instr_i [31:0] $end
$var wire 7 l" opcode [6:0] $end
$var reg 32 m" imm_o [31:0] $end
$upscope $end
$upscope $end
$upscope $end
$enddefinitions $end
#0
$dumpvars
bx m"
bx l"
bx k"
bx j"
bx i"
bx h"
bx g"
bx f"
bx e"
bx d"
bx c"
bx b"
bx a"
bx `"
bx _"
bx ^"
bx ]"
bx \"
b0 ["
bx Z"
bx Y"
b0 X"
bx W"
bx V"
b0 U"
bx T"
bx S"
b0 R"
bx Q"
bx P"
b0 O"
bx N"
bx M"
bx L"
bx K"
bx J"
bx I"
bx H"
bx G"
bx F"
bx E"
bx D"
bx C"
bx B"
bx A"
bx @"
bx ?"
bx >"
bx ="
bx <"
bx ;"
bx :"
bx 9"
bx 8"
bx 7"
bx 6"
bx 5"
bx 4"
bx 3"
bx 2"
bx 1"
bx 0"
bx /"
bx ."
bx -"
bx ,"
bx +"
bx *"
bx )"
bx ("
bx '"
bx &"
bx %"
bx $"
bx #"
b0 ""
bx !"
b0 ~
bx }
bx |
bx {
bx z
bx y
bx x
bx w
b100 v
bx u
bx t
bx s
bx r
bx q
bx p
bx o
b0 n
b0 m
bx l
bx k
bx j
bx i
bx h
b0 g
bx f
bx e
xd
xc
b0 b
bx a
b0 `
bx _
x^
bx ]
bx \
x[
xZ
xY
xX
xW
xV
xU
xT
xS
xR
xQ
xP
xO
bx N
bx M
bx L
bx K
bx J
bx I
bx H
bx G
bx F
bx E
bx D
bx C
bx B
bx A
x@
x?
x>
x=
bx <
bx ;
bx :
bx 9
bx 8
bx 7
bx 6
bx 5
bx 4
bx 3
bx 2
bx 1
bx 0
bx /
bx .
x-
x,
b0 +
b0 *
b11 )
b0 (
b0 '
b100000 &
b0 %
b0 $
b0 #
1"
0!
$end
#6
0-
0,
b10 k
b0 h
b0 z
b0 /"
0^
0V
0Y
0?
0S
0c
b0 G
b0 7"
b0 i"
b0 C
b0 6"
b0 h"
b1100010000000100000110011 4
b1100010000000100000110011 B"
b1100010000000100000110011 E"
b100 0
b100 ^"
b100 b"
b0 1
b0 s
b0 ]"
b0 6
b0 t
b0 5"
b0 m"
b0 l"
b0 M
b0 0"
b0 E
b0 -"
b0 2"
b0 g"
b0 I
b0 ,"
b0 1"
b0 f"
b0 8
b0 4"
b0 :
b0 3"
b0 3
b0 y
b0 a
b0 l
b0 N"
b10 j
b10 r
0P
1O
0[
b0 B
b0 {
b0 I"
b0 <
b0 T"
b0 Z"
b0 a"
b0 e"
b0 \
b0 +"
b0 Y"
b0 ]
b0 *"
b0 S"
b100 /
b100 w
b100 \"
b0 .
b0 x
b0 A"
b0 F"
b0 c"
b0 2
b0 u
b0 D"
b0 5
b0 C"
b0 k"
b0 N
b0 !"
b0 ."
b0 9"
b0 F
b0 '"
b0 <"
b0 J
b0 ("
b0 :"
b0 9
b0 o
b0 ?"
b0 ;
b0 p
b0 >"
b0 7
b0 @"
b0 M"
b0 D
b0 ="
b0 V"
b0 H
b0 ;"
b0 P"
0d
b0 i
b0 q
b0 8"
0W
0Z
0T
0@
b0 L
b0 %"
b0 &"
b0 H"
b0 _
b0 |
b0 $"
b0 f
b0 }
b0 #"
b0 G"
b0 Q"
b0 W"
0U
0R
0X
0>
b0 K
b0 )"
b0 K"
b0 d"
b0 A
b0 L"
b0 `"
b0 e
b0 J"
b0 _"
0Q
0=
b100000 j"
0"
#12
b1 #
b1 +
1"
#25
b11111111111111111111111111101000 C
b11111111111111111111111111101000 6"
b11111111111111111111111111101000 h"
b10 h
b10 z
b10 /"
1?
b110011 l"
b10000 M
b10000 0"
b11000 E
b11000 -"
b11000 2"
b11000 g"
b10000 I
b10000 ,"
b10000 1"
b10000 f"
b110011 3
b110011 y
b1100110000000100000110011 4
b1100110000000100000110011 B"
b1100110000000100000110011 E"
b1000 0
b1000 ^"
b1000 b"
b1100010000000100000110011 5
b1100010000000100000110011 C"
b1100010000000100000110011 k"
b1000 /
b1000 w
b1000 \"
b100 .
b100 x
b100 A"
b100 F"
b100 c"
1!
#50
b10 #
0!
#75
b11111111111111111111111111101000 g
b11111111111111111111111111101000 n
b11111111111111111111111111101000 ~
b11111111111111111111111111100111 C
b11111111111111111111111111100111 6"
b11111111111111111111111111100111 h"
b11111111111111111111111111101000 a
b11111111111111111111111111101000 l
b11111111111111111111111111101000 N"
b1101010000000100000110011 4
b1101010000000100000110011 B"
b1101010000000100000110011 E"
b1100 0
b1100 ^"
b1100 b"
b11001 E
b11001 -"
b11001 2"
b11001 g"
b11111111111111111111111111101000 `
b11111111111111111111111111101000 ""
b11111111111111111111111111101000 O"
b11111111111111111111111111101000 ["
b1100 /
b1100 w
b1100 \"
b1000 .
b1000 x
b1000 A"
b1000 F"
b1000 c"
b1100110000000100000110011 5
b1100110000000100000110011 C"
b1100110000000100000110011 k"
b100 1
b100 s
b100 ]"
b100 2
b100 u
b100 D"
b10000 N
b10000 !"
b10000 ."
b10000 9"
b11000 F
b11000 '"
b11000 <"
b10000 J
b10000 ("
b10000 :"
b11111111111111111111111111101000 D
b11111111111111111111111111101000 ="
b11111111111111111111111111101000 V"
b10 i
b10 q
b10 8"
1@
1!
#100
b11 #
0!
#125
b11111111111111111111111111001111 g
b11111111111111111111111111001111 n
b11111111111111111111111111001111 ~
b11111111111111111111111111100111 a
b11111111111111111111111111100111 l
b11111111111111111111111111100111 N"
b11111111111111111111111111100110 C
b11111111111111111111111111100110 6"
b11111111111111111111111111100110 h"
b11111111111111111111111111101000 b
b11111111111111111111111111101000 m
b11111111111111111111111111101000 U"
b10 ]
b10 *"
b10 S"
b11111111111111111111111111100111 `
b11111111111111111111111111100111 ""
b11111111111111111111111111100111 O"
b11111111111111111111111111100111 ["
b11010 E
b11010 -"
b11010 2"
b11010 g"
b1110010000000100000110011 4
b1110010000000100000110011 B"
b1110010000000100000110011 E"
b10000 0
b10000 ^"
b10000 b"
b10000 L
b10000 %"
b10000 &"
b10000 H"
b11111111111111111111111111101000 _
b11111111111111111111111111101000 |
b11111111111111111111111111101000 $"
b11111111111111111111111111101000 f
b11111111111111111111111111101000 }
b11111111111111111111111111101000 #"
b11111111111111111111111111101000 G"
b11111111111111111111111111101000 Q"
b11111111111111111111111111101000 W"
1>
b11001 F
b11001 '"
b11001 <"
b11111111111111111111111111100111 D
b11111111111111111111111111100111 ="
b11111111111111111111111111100111 V"
b1101010000000100000110011 5
b1101010000000100000110011 C"
b1101010000000100000110011 k"
b1000 1
b1000 s
b1000 ]"
b1000 2
b1000 u
b1000 D"
b10000 /
b10000 w
b10000 \"
b1100 .
b1100 x
b1100 A"
b1100 F"
b1100 c"
1!
#150
b100 #
0!
#175
b111000 C
b111000 6"
b111000 h"
b11111111111111111111111110110101 g
b11111111111111111111111110110101 n
b11111111111111111111111110110101 ~
b11111111111111111111111111100110 a
b11111111111111111111111111100110 l
b11111111111111111111111111100110 N"
b11111111111111111111111111101000 G
b11111111111111111111111111101000 7"
b11111111111111111111111111101000 i"
b1000000000010110000100011 4
b1000000000010110000100011 B"
b1000000000010110000100011 E"
b10100 0
b10100 ^"
b10100 b"
b11100 E
b11100 -"
b11100 2"
b11100 g"
b11111111111111111111111111001111 b
b11111111111111111111111111001111 m
b11111111111111111111111111001111 U"
b11111111111111111111111111100110 `
b11111111111111111111111111100110 ""
b11111111111111111111111111100110 O"
b11111111111111111111111111100110 ["
b11111111111111111111111111101000 <
b11111111111111111111111111101000 T"
b11111111111111111111111111101000 Z"
b11111111111111111111111111101000 a"
b11111111111111111111111111101000 e"
b10 ]
b10 *"
b10 S"
b10100 /
b10100 w
b10100 \"
b10000 .
b10000 x
b10000 A"
b10000 F"
b10000 c"
b1110010000000100000110011 5
b1110010000000100000110011 C"
b1110010000000100000110011 k"
b1100 1
b1100 s
b1100 ]"
b1100 2
b1100 u
b1100 D"
b11010 F
b11010 '"
b11010 <"
b11111111111111111111111111100110 D
b11111111111111111111111111100110 ="
b11111111111111111111111111100110 V"
b11111111111111111111111111100111 _
b11111111111111111111111111100111 |
b11111111111111111111111111100111 $"
b11111111111111111111111111001111 f
b11111111111111111111111111001111 }
b11111111111111111111111111001111 #"
b11111111111111111111111111001111 G"
b11111111111111111111111111001111 Q"
b11111111111111111111111111001111 W"
b10000 K
b10000 )"
b10000 K"
b10000 d"
b11111111111111111111111111101000 e
b11111111111111111111111111101000 J"
b11111111111111111111111111101000 _"
1=
1!
#200
b101 #
0!
#225
b0 G
b0 7"
b0 i"
b111000 a
b111000 l
b111000 N"
b11111111111111111111111111101101 g
b11111111111111111111111111101101 n
b11111111111111111111111111101101 ~
b11111111111111111111111111001111 C
b11111111111111111111111111001111 6"
b11111111111111111111111111001111 h"
b0 h
b0 z
b0 /"
1V
0?
1c
b11111111111111111111111111001111 <
b11111111111111111111111111001111 T"
b11111111111111111111111111001111 Z"
b11111111111111111111111111001111 a"
b11111111111111111111111111001111 e"
b10 ]
b10 *"
b10 S"
b111000 `
b111000 ""
b111000 O"
b111000 ["
b11111111111111111111111110110101 b
b11111111111111111111111110110101 m
b11111111111111111111111110110101 U"
b11000 6
b11000 t
b11000 5"
b11000 m"
b100011 l"
b11000 M
b11000 0"
b10000 E
b10000 -"
b10000 2"
b10000 g"
b0 I
b0 ,"
b0 1"
b0 f"
b10 :
b10 3"
b100011 3
b100011 y
b1000001111011111000000010110011 4
b1000001111011111000000010110011 B"
b1000001111011111000000010110011 E"
b11000 0
b11000 ^"
b11000 b"
b11111111111111111111111111001111 e
b11111111111111111111111111001111 J"
b11111111111111111111111111001111 _"
b11111111111111111111111111100110 _
b11111111111111111111111111100110 |
b11111111111111111111111111100110 $"
b11111111111111111111111110110101 f
b11111111111111111111111110110101 }
b11111111111111111111111110110101 #"
b11111111111111111111111110110101 G"
b11111111111111111111111110110101 Q"
b11111111111111111111111110110101 W"
b11100 F
b11100 '"
b11100 <"
b111000 D
b111000 ="
b111000 V"
b11111111111111111111111111101000 H
b11111111111111111111111111101000 ;"
b11111111111111111111111111101000 P"
b1000000000010110000100011 5
b1000000000010110000100011 C"
b1000000000010110000100011 k"
b101000 1
b101000 s
b101000 ]"
b10000 2
b10000 u
b10000 D"
b11000 /
b11000 w
b11000 \"
b10100 .
b10100 x
b10100 A"
b10100 F"
b10100 c"
1!
#250
b110 #
0!
#275
b111110 G
b111110 7"
b111110 i"
b10 h
b10 z
b10 /"
0V
1?
0c
b11000 g
b11000 n
b11000 ~
b111100 C
b111100 6"
b111100 h"
b1111000001000000100110011 4
b1111000001000000100110011 B"
b1111000001000000100110011 E"
b11100 0
b11100 ^"
b11100 b"
b0 6
b0 t
b0 5"
b0 m"
b110011 l"
b1 M
b1 0"
b11110 E
b11110 -"
b11110 2"
b11110 g"
b11111 I
b11111 ,"
b11111 1"
b11111 f"
b100000 8
b100000 4"
b0 :
b0 3"
b110011 3
b110011 y
b10 \
b10 +"
b10 Y"
b0 ]
b0 *"
b0 S"
b11000 a
b11000 l
b11000 N"
b0 b
b0 m
b0 U"
b11111111111111111111111111101101 `
b11111111111111111111111111101101 ""
b11111111111111111111111111101101 O"
b11111111111111111111111111101101 ["
b11111111111111111111111110110101 <
b11111111111111111111111110110101 T"
b11111111111111111111111110110101 Z"
b11111111111111111111111110110101 a"
b11111111111111111111111110110101 e"
b11100 /
b11100 w
b11100 \"
b11000 .
b11000 x
b11000 A"
b11000 F"
b11000 c"
b1000001111011111000000010110011 5
b1000001111011111000000010110011 C"
b1000001111011111000000010110011 k"
b10100 1
b10100 s
b10100 ]"
b10100 2
b10100 u
b10100 D"
b11000 N
b11000 !"
b11000 ."
b11000 9"
b10000 F
b10000 '"
b10000 <"
b0 J
b0 ("
b0 :"
b10 ;
b10 p
b10 >"
b11000 7
b11000 @"
b11000 M"
b11111111111111111111111111001111 D
b11111111111111111111111111001111 ="
b11111111111111111111111111001111 V"
b0 H
b0 ;"
b0 P"
1d
b0 i
b0 q
b0 8"
1W
0@
b111000 _
b111000 |
b111000 $"
b11111111111111111111111111101101 f
b11111111111111111111111111101101 }
b11111111111111111111111111101101 #"
b11111111111111111111111111101101 G"
b11111111111111111111111111101101 Q"
b11111111111111111111111111101101 W"
b11111111111111111111111110110101 e
b11111111111111111111111110110101 J"
b11111111111111111111111110110101 _"
1!
#300
b111 #
0!
#325
b0 g
b0 n
b0 ~
b110 k
b0 G
b0 7"
b0 i"
b11111111111111111111111111101101 <
b11111111111111111111111111101101 T"
b11111111111111111111111111101101 Z"
b11111111111111111111111111101101 a"
b11111111111111111111111111101101 e"
b0 \
b0 +"
b0 Y"
b111100 `
b111100 ""
b111100 O"
b111100 ["
b111110 b
b111110 m
b111110 U"
b111100 a
b111100 l
b111100 N"
b110 j
b110 r
b10 M
b10 0"
b1 I
b1 ,"
b1 1"
b1 f"
b0 8
b0 4"
b1000000001000010101000110010011 4
b1000000001000010101000110010011 B"
b1000000001000010101000110010011 E"
b100000 0
b100000 ^"
b100000 b"
b11111111111111111111111111101101 e
b11111111111111111111111111101101 J"
b11111111111111111111111111101101 _"
b11000 L
b11000 %"
b11000 &"
b11000 H"
b11111111111111111111111111101101 _
b11111111111111111111111111101101 |
b11111111111111111111111111101101 $"
b11000 f
b11000 }
b11000 #"
b11000 G"
b11000 Q"
b11000 W"
1U
0>
b1 N
b1 !"
b1 ."
b1 9"
b11110 F
b11110 '"
b11110 <"
b11111 J
b11111 ("
b11111 :"
b100000 9
b100000 o
b100000 ?"
b0 ;
b0 p
b0 >"
b0 7
b0 @"
b0 M"
b111100 D
b111100 ="
b111100 V"
b111110 H
b111110 ;"
b111110 P"
0d
b10 i
b10 q
b10 8"
0W
1@
b1111000001000000100110011 5
b1111000001000000100110011 C"
b1111000001000000100110011 k"
b11000 1
b11000 s
b11000 ]"
b11000 2
b11000 u
b11000 D"
b100000 /
b100000 w
b100000 \"
b11100 .
b11100 x
b11100 A"
b11100 F"
b11100 c"
1!
#350
b1000 #
0!
#375
b111100 g
b111100 n
b111100 ~
b0 C
b0 6"
b0 h"
b11 h
b11 z
b11 /"
1c
b10 k
b1000000000011010010011 4
b1000000000011010010011 B"
b1000000000011010010011 E"
b100100 0
b100100 ^"
b100100 b"
b10000000010 6
b10000000010 t
b10000000010 5"
b10000000010 m"
b10011 l"
b11 M
b11 0"
b10 E
b10 -"
b10 2"
b10 g"
b10 I
b10 ,"
b10 1"
b10 f"
b100000 8
b100000 4"
b101 :
b101 3"
b10011 3
b10011 y
b10 j
b10 r
b0 b
b0 m
b0 U"
b11000 <
b11000 T"
b11000 Z"
b11000 a"
b11000 e"
b10 ]
b10 *"
b10 S"
b100100 /
b100100 w
b100100 \"
b100000 .
b100000 x
b100000 A"
b100000 F"
b100000 c"
b1000000001000010101000110010011 5
b1000000001000010101000110010011 C"
b1000000001000010101000110010011 k"
b10000011110 1
b10000011110 s
b10000011110 ]"
b11100 2
b11100 u
b11100 D"
b10 N
b10 !"
b10 ."
b10 9"
b1 J
b1 ("
b1 :"
b0 9
b0 o
b0 ?"
b0 H
b0 ;"
b0 P"
b1 L
b1 %"
b1 &"
b1 H"
b111100 _
b111100 |
b111100 $"
b0 f
b0 }
b0 #"
b0 G"
b0 Q"
b0 W"
0U
1>
b11000 K
b11000 )"
b11000 K"
b11000 d"
b11000 e
b11000 J"
b11000 _"
0=
1!
#400
b1001 #
0!
#425
b0 g
b0 n
b0 ~
b0 k
b0 <
b0 T"
b0 Z"
b0 a"
b0 e"
b111100 b
b111100 m
b111100 U"
b10 \
b10 +"
b10 Y"
b10 ]
b10 *"
b10 S"
b111100 `
b111100 ""
b111100 O"
b111100 ["
b10000000010 a
b10000000010 l
b10000000010 N"
b1000 j
b1000 r
b10 6
b10 t
b10 5"
b10 m"
b1101 M
b1101 0"
b0 I
b0 ,"
b0 1"
b0 f"
b0 8
b0 4"
b0 :
b0 3"
b110111110001011110110011 4
b110111110001011110110011 B"
b110111110001011110110011 E"
b101000 0
b101000 ^"
b101000 b"
b1 K
b1 )"
b1 K"
b1 d"
b0 e
b0 J"
b0 _"
1=
b10 L
b10 %"
b10 &"
b10 H"
b111100 f
b111100 }
b111100 #"
b111100 G"
b111100 Q"
b111100 W"
b11 N
b11 !"
b11 ."
b11 9"
b10 F
b10 '"
b10 <"
b10 J
b10 ("
b10 :"
b100000 9
b100000 o
b100000 ?"
b101 ;
b101 p
b101 >"
b10000000010 7
b10000000010 @"
b10000000010 M"
b0 D
b0 ="
b0 V"
1d
b11 i
b11 q
b11 8"
b1000000000011010010011 5
b1000000000011010010011 C"
b1000000000011010010011 k"
b100010 1
b100010 s
b100010 ]"
b100000 2
b100000 u
b100000 D"
b101000 /
b101000 w
b101000 \"
b100100 .
b100100 x
b100100 A"
b100100 F"
b100100 c"
1!
#450
b1010 #
0!
#475
b10 g
b10 n
b10 ~
b111100 G
b111100 7"
b111100 i"
b10 h
b10 z
b10 /"
0c
b10 k
b0 C
b0 6"
b0 h"
b1100000010101000100011 4
b1100000010101000100011 B"
b1100000010101000100011 E"
b101100 0
b101100 ^"
b101100 b"
b0 6
b0 t
b0 5"
b0 m"
b110011 l"
b1111 M
b1111 0"
b1101 E
b1101 -"
b1101 2"
b1101 g"
b11110 I
b11110 ,"
b11110 1"
b11110 f"
b1 :
b1 3"
b110011 3
b110011 y
b10 j
b10 r
b10 a
b10 l
b10 N"
b0 b
b0 m
b0 U"
b1 \
b1 +"
b1 Y"
b0 ]
b0 *"
b0 S"
b111100 <
b111100 T"
b111100 Z"
b111100 a"
b111100 e"
b101100 /
b101100 w
b101100 \"
b101000 .
b101000 x
b101000 A"
b101000 F"
b101000 c"
b110111110001011110110011 5
b110111110001011110110011 C"
b110111110001011110110011 k"
b100100 1
b100100 s
b100100 ]"
b100100 2
b100100 u
b100100 D"
b1101 N
b1101 !"
b1101 ."
b1101 9"
b0 J
b0 ("
b0 :"
b0 9
b0 o
b0 ?"
b0 ;
b0 p
b0 >"
b10 7
b10 @"
b10 M"
b11 L
b11 %"
b11 &"
b11 H"
b0 f
b0 }
b0 #"
b0 G"
b0 Q"
b0 W"
b10 K
b10 )"
b10 K"
b10 d"
b111100 e
b111100 J"
b111100 _"
1!
#500
b1011 #
0!
